<svg width="40" height="40" viewBox="0 0 40 40" xmlns="http://www.w3.org/2000/svg">
  <path fill="currentColor" d="M40 2.24v35.49c-.03.1-.07.194-.097.297-.235.952-.832 1.562-1.758 1.852l-.412.12H27.487c.014-.18.03-.34.03-.51V25.02h.47c1.402 0 2.79-.007 4.18 0 .276 0 .39-.08.433-.353.27-1.397.557-2.773.838-4.17.116-.576.218-1.154.342-1.806h-6.19c0-1.11-.06-2.18.007-3.24.105-1.64 1.213-2.74 2.86-2.85.965-.07 1.925-.06 2.883-.08.144 0 .273-.01.402-.02V6.22c-.13-.004-.225-.02-.324-.02-1.68 0-3.36-.023-5.04.012-1.794.038-3.36.66-4.647 1.92-1.71 1.68-2.38 3.81-2.5 6.134-.06 1.21-.01 2.42-.01 3.633v.83h-4.98v6.29h4.98v14.47c0 .17.02.33.02.5h-19c-.04-.02-.08-.06-.13-.07C.66 39.55 0 38.71 0 37.2V2.7C0 2.078.127 1.49.517.98 1.07.27 1.824 0 2.703 0 14.23.003 25.76 0 37.285 0h.235c1.11.037 2.044.753 2.344 1.8.043.145.09.296.136.44z"/>
</svg>
