<svg height="2048" viewBox="0 0 2048 2048" width="2048" xmlns="http://www.w3.org/2000/svg" shape-rendering="geometricPrecision" text-rendering="geometricPrecision" image-rendering="optimizeQuality" fill-rule="evenodd" clip-rule="evenodd"><g id="Layer_x0020_1">
   <path fill="currentColor" d="M1688.02 565.913c-30.376-27.574-68.845-45.658-110.92-50.307-91.446-10.235-183.722-15.387-276.304-17.97-91.988-2.566-184.37-2.566-276.547-2.512-92.165-.054-184.54-.054-276.54 2.512-92.594 2.583-184.897 7.735-276.396 17.97-42.033 4.65-80.486 22.744-110.834 50.33-30.155 27.408-52.31 64.218-62.002 106.533-13.084 56.72-19.703 115.898-23.047 175.444-3.356 59.798-3.44 118.84-3.44 176.156 0 57.24.002 116.205 3.28 176.04 3.26 59.518 9.8 118.695 22.89 175.425 9.75 42.33 31.917 79.152 62.07 106.56 30.33 27.57 68.744 45.65 110.766 50.303 91.51 10.234 183.814 15.386 276.407 17.968 91.998 2.565 184.375 2.565 276.552 2.512 92.218.053 184.593.053 276.58-2.512 92.578-2.582 184.855-7.734 276.355-17.968 42.013-4.65 80.42-22.727 110.763-50.29 30.167-27.404 52.364-64.23 62.178-106.573 13.034-56.732 19.574-115.91 22.848-175.426 3.23-58.694 3.257-118.235 3.253-176.04h.063v-2.902h-.062c.003-114.85.003-236.492-25.782-348.698-9.75-42.333-31.94-79.15-62.128-106.556z"/>
   <path fill="black" d="M1309.36 995.76c-85.686-44.748-170.795-89.16-255.803-133.518-70.663-36.873-141.262-73.713-212.066-110.68l-23.374-12.204v539.339l23.312-12.076c78.202-40.507 156.07-80.865 233.935-121.235l233.934-121.313 27.23-14.123-27.167-14.19z"/></g>
 </svg>
